{
  "data": [ 
    {
      "path": "/dashboard",
      "title": "Dashboard",
      "icon": "home",
      "type": "link",
      "active": false
    },
    {
      "title": "Deviation", "icon": "command", "type": "sub", 
      "badgeType": "primary", "badgeValue": "", "active": false, 
      "children": [
        { "path": "/deviation/user/list", "title": "Deviation List", "type": "link" }
      ]
    }
  ]
}
